edu\umich\icpsr\sastosdtl\models\TempTypeList$1.class
edu\umich\icpsr\sastosdtl\sasparser\SASParser$Change_optionsContext.class
edu\umich\icpsr\sastosdtl\sasparser\SASParser$Label_partContext.class
edu\umich\icpsr\sastosdtl\sasparser\SASParser$Merge_statementContext.class
edu\umich\icpsr\sastosdtl\sasparser\SASParser$Set_argumentsContext.class
edu\umich\icpsr\sastosdtl\sasparser\SASParser$Infix_operatorContext.class
edu\umich\icpsr\sastosdtl\sasparser\SASParser$End_optionContext.class
edu\umich\icpsr\sastosdtl\sasparser\SASParser$Statistic_keywordContext.class
edu\umich\icpsr\sastosdtl\sasparser\SASParser$Id_statementContext.class
edu\umich\icpsr\sastosdtl\sasparser\SASParser$OperandContext.class
edu\umich\icpsr\sastosdtl\sasparser\SASParser$Data_set_nameContext.class
edu\umich\icpsr\sastosdtl\sasparser\SASParser$Drop_statementContext.class
edu\umich\icpsr\sastosdtl\sasparser\SASParser$Proc_statementContext.class
edu\umich\icpsr\sastosdtl\sasparser\SASParser$Character_value_rangeContext.class
edu\umich\icpsr\sastosdtl\sasparser\SASParser$Tables_statementContext.class
edu\umich\icpsr\sastosdtl\sasparser\SASParser$Update_optionContext.class
edu\umich\icpsr\sastosdtl\sasparser\SASParser$Modify_statementsContext.class
edu\umich\icpsr\sastosdtl\sasparser\SASParser$Proc_transpose_statementContext.class
edu\umich\icpsr\sastosdtl\sasparser\SASParser$Type_groupingContext.class
edu\umich\icpsr\sastosdtl\sasparser\SASParser$Variable_range_1Context.class
edu\umich\icpsr\sastosdtl\sasparser\SASParser$Change_statementContext.class
edu\umich\icpsr\sastosdtl\sasparser\SASParser$Output_statementContext.class
edu\umich\icpsr\sastosdtl\sasparser\SASParser$Variable_range_2Context.class
edu\umich\icpsr\sastosdtl\models\NumericConstantExpression.class
edu\umich\icpsr\sastosdtl\models\Save.class
edu\umich\icpsr\sastosdtl\sasparser\SASParser$AttributesContext.class
edu\umich\icpsr\sastosdtl\sasparser\SASParser$Proc_freq_statementContext.class
edu\umich\icpsr\sasconverter\FunctionNameMap.class
edu\umich\icpsr\sastosdtl\sasparser\SASParser$Age_argumentsContext.class
edu\umich\icpsr\sastosdtl\sasparser\SASParser$Proc_print_optional_statementsContext.class
edu\umich\icpsr\sastosdtl\sasparser\SASParser$ConstraintContext.class
edu\umich\icpsr\sastosdtl\sasparser\SASParser$Proc_format_statementContext.class
edu\umich\icpsr\sastosdtl\models\AllVariablesExpression.class
edu\umich\icpsr\sastosdtl\models\Rename.class
edu\umich\icpsr\sastosdtl\sasparser\SASParser$ArgumentContext.class
edu\umich\icpsr\sastosdtl\sasparser\SASParser$Label_equals_optionContext.class
edu\umich\icpsr\sastosdtl\sasparser\SASParser$LineContext.class
edu\umich\icpsr\sastosdtl\models\VariableRangeExpression.class
edu\umich\icpsr\sastosdtl\models\CommandList.class
edu\umich\icpsr\sastosdtl\models\SetVariableLabel.class
edu\umich\icpsr\sastosdtl\models\ExpressionBase.class
edu\umich\icpsr\sastosdtl\models\TempDataStep$1.class
edu\umich\icpsr\sastosdtl\sasparser\SASParser$Prefix_operatorContext.class
edu\umich\icpsr\sastosdtl\sasparser\SASParser$Array_indexContext.class
edu\umich\icpsr\sastosdtl\sasparser\SASParser$FormatContext.class
edu\umich\icpsr\sastosdtl\sasparser\SASParser$Device_typeContext.class
edu\umich\icpsr\sastosdtl\sasparser\SASParser$FunctionContext.class
edu\umich\icpsr\sastosdtl\sasparser\SASParser$Key_reset_optionContext.class
edu\umich\icpsr\sastosdtl\models\TempType.class
edu\umich\icpsr\sastosdtl\sasparser\SASParser$Label_statementContext.class
edu\umich\icpsr\sastosdtl\models\VariableListExpression.class
edu\umich\icpsr\sastosdtl\sasparser\SASParser$Of_listContext.class
edu\umich\icpsr\sastosdtl\models\Compute.class
edu\umich\icpsr\sastosdtl\models\SetDatasetProperty.class
edu\umich\icpsr\sastosdtl\sasparser\SASParser$Array_subscriptContext.class
edu\umich\icpsr\sastosdtl\sasparser\SASParser$Proc_freq_optionsContext.class
edu\umich\icpsr\sastosdtl\sasparser\SASParser$Variable_or_listContext.class
edu\umich\icpsr\sastosdtl\models\StringRangeExpression.class
edu\umich\icpsr\sastosdtl\sasparser\SASParser$Where_statementContext.class
edu\umich\icpsr\sastosdtl\models\TransformBase.class
edu\umich\icpsr\sastosdtl\models\AppendFileDescription.class
edu\umich\icpsr\sastosdtl\models\GroupedExpression.class
edu\umich\icpsr\sastosdtl\models\AllTextVariablesExpression.class
edu\umich\icpsr\sastosdtl\sasparser\SASParser$Output_partContext.class
edu\umich\icpsr\sastosdtl\sasparser\SASParser$Value_range_setContext.class
edu\umich\icpsr\sastosdtl\sasparser\SASParser$Set_optionsContext.class
edu\umich\icpsr\sastosdtl\sasparser\SASParser$Data_statementContext.class
edu\umich\icpsr\sastosdtl\sasparser\SASParser$Modify_optionsContext.class
edu\umich\icpsr\sastosdtl\models\ValueLabel.class
edu\umich\icpsr\sastosdtl\sasparser\SASParser$Modify_statementContext.class
edu\umich\icpsr\sastosdtl\sasparser\SASParser$Informatted_valueContext.class
edu\umich\icpsr\sastosdtl\sasparser\SASParser$Data_argumentsContext.class
edu\umich\icpsr\sastosdtl\sasparser\SASParser$AscendingContext.class
edu\umich\icpsr\sastosdtl\sasparser\SASParser$ParseContext.class
edu\umich\icpsr\sastosdtl\sasparser\SASParser$Engine_optionsContext.class
edu\umich\icpsr\sastosdtl\sasparser\SASParser$Proc_format_optionsContext.class
edu\umich\icpsr\sastosdtl\models\ValueRange.class
edu\umich\icpsr\sastosdtl\sasparser\SASParser$Password_modificationContext.class
edu\umich\icpsr\sastosdtl\models\FunctionCallExpression.class
edu\umich\icpsr\sastosdtl\sasparser\SASParser$Filename_optionsContext.class
edu\umich\icpsr\sasconverter\TreeVisitor.class
edu\umich\icpsr\sastosdtl\models\SortCriterion.class
edu\umich\icpsr\sastosdtl\sasparser\SASParser$Format_statementsContext.class
edu\umich\icpsr\sastosdtl\sasparser\SASParser$DescendingContext.class
edu\umich\icpsr\sastosdtl\models\SourceInformation.class
edu\umich\icpsr\sastosdtl\sasparser\SASParser$Index_specContext.class
edu\umich\icpsr\sastosdtl\sasparser\SASParser$Libref_optionsContext.class
edu\umich\icpsr\sastosdtl\sasparser\SASParser$Update_statementContext.class
edu\umich\icpsr\sastosdtl\sasparser\SASParser$Key_optionContext.class
edu\umich\icpsr\sastosdtl\sasparser\SASParser$Array_statementContext.class
edu\umich\icpsr\sastosdtl\models\SetMissingValues.class
edu\umich\icpsr\sastosdtl\sasparser\SASParser$Proc_print_optionsContext.class
edu\umich\icpsr\sastosdtl\models\Load.class
edu\umich\icpsr\sastosdtl\sasparser\SASParser$Initial_value_listContext.class
edu\umich\icpsr\sastosdtl\sasparser\SASParser$On_updateContext.class
edu\umich\icpsr\sastosdtl\models\StringConstantExpression.class
edu\umich\icpsr\sastosdtl\sasparser\SASParser$Run_statementContext.class
edu\umich\icpsr\sastosdtl\sasparser\SASParser$Copy_optionsContext.class
edu\umich\icpsr\sastosdtl\sasparser\SASParser$Format_optionsContext.class
edu\umich\icpsr\sastosdtl\sasparser\SASParser$Data_step_blockContext.class
edu\umich\icpsr\sastosdtl\sasparser\SASParser$Freq_statementContext.class
edu\umich\icpsr\sastosdtl\sasparser\SASParser$Output_datasetContext.class
edu\umich\icpsr\sasconverter\SASController.class
edu\umich\icpsr\sastosdtl\sasparser\SASParser$Format_entryContext.class
edu\umich\icpsr\sastosdtl\sasparser\SASParser$Test_statementContext.class
edu\umich\icpsr\sastosdtl\sasparser\SASParser$Details_optionContext.class
edu\umich\icpsr\sastosdtl\sasparser\SASParser$Proc_datasets_statementsContext.class
edu\umich\icpsr\sastosdtl\models\TempData.class
edu\umich\icpsr\sastosdtl\sasparser\SASParser$Compound_whereContext.class
edu\umich\icpsr\sastosdtl\sasparser\SASParser$Weight_statementContext.class
edu\umich\icpsr\sastosdtl\models\CompositeVariableNameExpression.class
edu\umich\icpsr\sastosdtl\models\SetDataType.class
edu\umich\icpsr\sastosdtl\sasparser\SASParser$Exchange_statementContext.class
edu\umich\icpsr\sastosdtl\sasparser\SASParser$Proc_stepContext.class
edu\umich\icpsr\sastosdtl\sasparser\SASParser$Exclude_statementContext.class
edu\umich\icpsr\sastosdtl\sasparser\SASParser$Proc_sort_statementContext.class
edu\umich\icpsr\sastosdtl\sasparser\SASParserBaseListener.class
edu\umich\icpsr\sastosdtl\sasparser\SASParser$Transpose_optionsContext.class
edu\umich\icpsr\sastosdtl\sasparser\SASParser$Attrib_statementContext.class
edu\umich\icpsr\sastosdtl\sasparser\SASParser$Rename_equals_optionContext.class
edu\umich\icpsr\sastosdtl\models\TempTypeList.class
edu\umich\icpsr\sastosdtl\models\NumericMaximumValueExpression.class
edu\umich\icpsr\sastosdtl\sasparser\SASParser$Star_groupingContext.class
edu\umich\icpsr\sastosdtl\sasparser\SASParser$Proc_datasets_optionsContext.class
edu\umich\icpsr\sastosdtl\models\DropCases.class
edu\umich\icpsr\sastosdtl\sasparser\SASParser$Libname_statementContext.class
edu\umich\icpsr\sastosdtl\sasparser\SASParser$Indsname_optionContext.class
edu\umich\icpsr\sastosdtl\sasparser\SASParser$Value_listContext.class
edu\umich\icpsr\sastosdtl\sasparser\SASParser$Append_statementContext.class
edu\umich\icpsr\sastosdtl\models\LoopWhile.class
edu\umich\icpsr\sastosdtl\sasparser\SASParser$Exact_statementContext.class
edu\umich\icpsr\sastosdtl\models\Message.class
edu\umich\icpsr\sastosdtl\swagger\WebAppConfig.class
edu\umich\icpsr\sastosdtl\sasparser\SASParser$Alter_optionContext.class
edu\umich\icpsr\sastosdtl\sasparser\SASParser$Gennum_optionContext.class
edu\umich\icpsr\sastosdtl\sasparser\SASParser$Assignment_statementContext.class
edu\umich\icpsr\sastosdtl\models\AppendDatasets.class
edu\umich\icpsr\sastosdtl\sasparser\SASParser$Filename_statementContext.class
edu\umich\icpsr\sastosdtl\sasparser\SASParser$Array_elementsContext.class
edu\umich\icpsr\sastosdtl\models\ReshapeLong.class
edu\umich\icpsr\sastosdtl\sasparser\SASParser$ConstantContext.class
edu\umich\icpsr\sastosdtl\sasparser\SASParser$Proc_means_summaryContext.class
edu\umich\icpsr\sastosdtl\sasparser\SASParser$Value_statementContext.class
edu\umich\icpsr\sastosdtl\models\KeepVariables.class
edu\umich\icpsr\sastosdtl\sasparser\SASParser$Data_stepContext.class
edu\umich\icpsr\sastosdtl\sasparser\SASParser$Var_statementContext.class
edu\umich\icpsr\sastosdtl\models\TempTypeList$TypeComparator.class
edu\umich\icpsr\sastosdtl\sasparser\SASParser$Binary_logicContext.class
edu\umich\icpsr\sastosdtl\sasparser\SASParser$Contents_optionsContext.class
edu\umich\icpsr\sastosdtl\sasparser\SASParser$Point_optionContext.class
edu\umich\icpsr\sastosdtl\models\TempDataStep.class
edu\umich\icpsr\sastosdtl\sasparser\SASParser$Otherwise_statementContext.class
edu\umich\icpsr\sastosdtl\sasparser\SASParser$EncodingContext.class
edu\umich\icpsr\sastosdtl\sasparser\SASParserVisitor.class
edu\umich\icpsr\sastosdtl\models\TempArray.class
edu\umich\icpsr\sastosdtl\sasparser\SASParserListener.class
edu\umich\icpsr\sastosdtl\sasparser\SASParser$ParentheticalContext.class
edu\umich\icpsr\sastosdtl\sasparser\SASParser$Format_statementContext.class
edu\umich\icpsr\sastosdtl\models\TempDataStep$TempFileDescription.class
edu\umich\icpsr\sastosdtl\sasparser\SASParser$AttributeContext.class
edu\umich\icpsr\sastosdtl\sasparser\SASParser$Rename_pairContext.class
edu\umich\icpsr\sastosdtl\sasparser\SASParser$Output_nameContext.class
edu\umich\icpsr\sastosdtl\models\RenamePair.class
edu\umich\icpsr\sastosdtl\models\SetDisplayFormat.class
edu\umich\icpsr\sastosdtl\sasparser\SASParser$StatementContext.class
edu\umich\icpsr\sastosdtl\models\MissingValueConstantExpression.class
edu\umich\icpsr\sastosdtl\models\Program.class
edu\umich\icpsr\sastosdtl\sasparser\SASParser$Contents_statementContext.class
edu\umich\icpsr\sastosdtl\sasparser\SASParser$Binary_expressionContext.class
edu\umich\icpsr\sastosdtl\sasparser\SASParser$Drop_equals_optionContext.class
edu\umich\icpsr\sastosdtl\sasparser\SASParser$Value_range_operationContext.class
edu\umich\icpsr\sastosdtl\sasparser\SASParser$Existing_formatContext.class
edu\umich\icpsr\sastosdtl\sasparser\SASParser$ArgumentsContext.class
edu\umich\icpsr\sastosdtl\sasparser\SASParser$Audit_statementContext.class
edu\umich\icpsr\sastosdtl\sasparser\SASParser$Open_optionContext.class
edu\umich\icpsr\sastosdtl\sasparser\SASParser$Numeric_value_rangeContext.class
edu\umich\icpsr\sastosdtl\sasparser\SASParser$Unary_expressionContext.class
edu\umich\icpsr\sastosdtl\sasparser\SASParser$Display_formatContext.class
edu\umich\icpsr\sastosdtl\sasparser\SASLexer.class
edu\umich\icpsr\sastosdtl\sasparser\SASParser$Comment_statementContext.class
edu\umich\icpsr\sastosdtl\sasparser\SASParser$Proc_format_selectContext.class
edu\umich\icpsr\sastosdtl\sasparser\SASParser$Proc_means_optionsContext.class
edu\umich\icpsr\sastosdtl\models\Comment.class
edu\umich\icpsr\sastosdtl\sasparser\SASParser$Transpose_statementsContext.class
edu\umich\icpsr\sastosdtl\models\ReshapeItemDescription.class
edu\umich\icpsr\sastosdtl\models\VariableSymbolExpression.class
edu\umich\icpsr\sastosdtl\sasparser\SASParser$Rename_statementContext.class
edu\umich\icpsr\sastosdtl\sasparser\SASParser$Where_equals_optionContext.class
edu\umich\icpsr\sastosdtl\sasparser\SASParser$Constraint_nameContext.class
edu\umich\icpsr\sastosdtl\models\Analysis.class
edu\umich\icpsr\sastosdtl\models\NumberRangeExpression.class
edu\umich\icpsr\sastosdtl\sasparser\SASParser$Class_statementContext.class
edu\umich\icpsr\sastosdtl\sasparser\SASParser$Collapse_statementsContext.class
edu\umich\icpsr\sastosdtl\models\SortCases.class
edu\umich\icpsr\sastosdtl\sasparser\SASParser$Where_expressionContext.class
edu\umich\icpsr\sastosdtl\sasparser\SASParser$Types_statementContext.class
edu\umich\icpsr\sastosdtl\sasparser\SASParser$Where_operationContext.class
edu\umich\icpsr\sastosdtl\sasparser\SASParser$Curobs_optionContext.class
edu\umich\icpsr\sastosdtl\models\Execute.class
edu\umich\icpsr\sastosdtl\sasparser\SASParser$VariableContext.class
edu\umich\icpsr\sastosdtl\models\MergeDatasets.class
edu\umich\icpsr\sastosdtl\sasparser\SASParser$Nobs_optionContext.class
edu\umich\icpsr\sastosdtl\models\DeleteVariables.class
edu\umich\icpsr\sastosdtl\sasparser\SASParser$Missing_statementContext.class
edu\umich\icpsr\sastosdtl\sasparser\SASParser$Proc_sort_optionsContext.class
edu\umich\icpsr\sastosdtl\sasparser\SASParser$Password_optionContext.class
edu\umich\icpsr\sastosdtl\sasparser\SASParser$Proc_modify_optionsContext.class
edu\umich\icpsr\sastosdtl\models\IteratorSymbolExpression.class
edu\umich\icpsr\sastosdtl\models\SetValueLabels.class
edu\umich\icpsr\sastosdtl\sasparser\SASParser$Ways_statementContext.class
edu\umich\icpsr\sastosdtl\sasparser\SASParser$Keep_statementContext.class
edu\umich\icpsr\sastosdtl\models\AllNumericVariablesExpression.class
edu\umich\icpsr\sastosdtl\models\LoopOverList.class
edu\umich\icpsr\sastosdtl\sasparser\SASParser$Memtype_optionContext.class
edu\umich\icpsr\sastosdtl\sasparser\SASParser$Value_or_rangeContext.class
edu\umich\icpsr\sastosdtl\sasparser\SASParser$Logical_expressionContext.class
edu\umich\icpsr\sastosdtl\sasparser\SASParser$Keep_equals_optionContext.class
edu\umich\icpsr\sastosdtl\sasparser\SASParserBaseVisitor.class
edu\umich\icpsr\sastosdtl\sasparser\SASParser$Output_variablesContext.class
edu\umich\icpsr\sastosdtl\sasparser\SASParser$Do_statementContext.class
edu\umich\icpsr\sastosdtl\models\DoIf.class
edu\umich\icpsr\sastosdtl\sasparser\SASParser$Copy_statementsContext.class
edu\umich\icpsr\sastosdtl\sasparser\SASParser$Collating_sequence_optionContext.class
edu\umich\icpsr\sastosdtl\models\IfRows.class
edu\umich\icpsr\sastosdtl\sasparser\SASParser$Select_statementContext.class
edu\umich\icpsr\sastosdtl\sasparser\SASParser$Proc_datasets_deleteContext.class
edu\umich\icpsr\sastosdtl\sasparser\SASParser$Informat_optionsContext.class
edu\umich\icpsr\sastosdtl\sasparser\SASParser$If_statementContext.class
edu\umich\icpsr\sastosdtl\sasparser\SASParser$Rebuild_statementContext.class
edu\umich\icpsr\sastosdtl\sasparser\SASParser.class
edu\umich\icpsr\sastosdtl\models\MergeFileDescription.class
edu\umich\icpsr\sastosdtl\models\Unsupported.class
edu\umich\icpsr\sastosdtl\models\ValueListExpression.class
edu\umich\icpsr\sastosdtl\sasparser\SASParser$ExpressionContext.class
edu\umich\icpsr\sastosdtl\sasparser\SASParser$Copy_statementContext.class
edu\umich\icpsr\sastosdtl\models\KeepCases.class
edu\umich\icpsr\sastosdtl\models\Invalid.class
edu\umich\icpsr\sastosdtl\sasparser\SASParser$Proc_print_statementContext.class
edu\umich\icpsr\sastosdtl\sasparser\SASParser$On_deleteContext.class
edu\umich\icpsr\sastosdtl\sasparser\SASParser$Invalue_statementContext.class
edu\umich\icpsr\sastosdtl\sasparser\SASParser$Proc_datasets_statementContext.class
edu\umich\icpsr\sasconverter\Converter.class
edu\umich\icpsr\sastosdtl\sasparser\SASParser$Repair_statementContext.class
edu\umich\icpsr\sastosdtl\models\IteratorDescription.class
edu\umich\icpsr\sastosdtl\sasparser\SASParser$Proc_datasets_modifyContext.class
edu\umich\icpsr\sastosdtl\sasparser\SASParser$Constant_sublistContext.class
edu\umich\icpsr\sastosdtl\models\FunctionArgument.class
edu\umich\icpsr\sastosdtl\sasparser\SASParser$Log_optionContext.class
edu\umich\icpsr\sastosdtl\sasparser\SASParser$Proc_summary_statementContext.class
edu\umich\icpsr\sastosdtl\models\VariableReferenceBase.class
edu\umich\icpsr\sastosdtl\sasparser\SASParser$Proc_datasets_saveContext.class
edu\umich\icpsr\sastosdtl\models\BooleanConstantExpression.class
edu\umich\icpsr\sastosdtl\sasparser\SASParser$When_statementContext.class
edu\umich\icpsr\sastosdtl\sasparser\SASParser$ComparisonContext.class
edu\umich\icpsr\sastosdtl\sasparser\SASParser$Delete_statementContext.class
edu\umich\icpsr\sastosdtl\sasparser\SASParser$Proc_means_statementContext.class
edu\umich\icpsr\sastosdtl\sasparser\SASParser$Sort_directionContext.class
edu\umich\icpsr\sastosdtl\models\Collapse.class
edu\umich\icpsr\sastosdtl\sasparser\SASParser$Proc_freq_optional_statementsContext.class
edu\umich\icpsr\sastosdtl\sasparser\SASParser$Parenthetical_logicContext.class
edu\umich\icpsr\sastosdtl\sasparser\SASParser$Data_set_optionsContext.class
edu\umich\icpsr\sastosdtl\sasparser\SASParser$Default_formatContext.class
edu\umich\icpsr\sastosdtl\sasparser\SASParser$Proc_append_statementContext.class
edu\umich\icpsr\sastosdtl\models\NumericMinimumValueExpression.class
edu\umich\icpsr\sastosdtl\sasparser\SASParser$Tables_requestsContext.class
edu\umich\icpsr\sastosdtl\sasparser\SASParser$Openv_optionsContext.class
edu\umich\icpsr\sastosdtl\sasparser\SASParser$Do_specContext.class
edu\umich\icpsr\sastosdtl\sasparser\SASParser$Audit_optionsContext.class
edu\umich\icpsr\sastosdtl\sasparser\SASParser$Set_statementContext.class
edu\umich\icpsr\sastosdtl\sasparser\SASParser$By_statementContext.class
